	// da 0 a 9
	inLettere[0] = 
	inLettere[1] = 
	inLettere[2] = 
	inLettere[3] = 
	inLettere[4] = 
	inLettere[5] = 
	inLettere[6] = 
	inLettere[7] = 
	inLettere[8] = 
	inLettere[9] = 

	// da 10 a 19
	inLettere[10] = 
	inLettere[11] = 
	inLettere[12] = 
	inLettere[13] = 
	inLettere[14] = 
	inLettere[15] = 
	inLettere[16] = 
	inLettere[17] = 
	inLettere[18] = 
	inLettere[19] = 

	// da 20 a 29
	inLettere[20] = 
	inLettere[21] = 
	inLettere[22] = 
	inLettere[23] = 
	inLettere[24] = 
	inLettere[25] = 
	inLettere[26] = 
	inLettere[27] = 
	inLettere[28] = 
	inLettere[29] = 

	// da 30 a 39
	inLettere[30] = 
	inLettere[31] = 
	inLettere[32] = 
	inLettere[33] = 
	inLettere[34] = 
	inLettere[35] = 
	inLettere[36] = 
	inLettere[37] = 
	inLettere[38] = 
	inLettere[39] = 

	// da 40 a 49
	inLettere[40] = 
	inLettere[41] = 
	inLettere[42] = 
	inLettere[43] = 
	inLettere[44] = 
	inLettere[45] = 
	inLettere[46] = 
	inLettere[47] = 
	inLettere[48] = 
	inLettere[49] = 

	// da 50 a 59
	inLettere[50] = 
	inLettere[51] = 
	inLettere[52] = 
	inLettere[53] = 
	inLettere[54] = 
	inLettere[55] = 
	inLettere[56] = 
	inLettere[57] = 
	inLettere[58] = 
	inLettere[59] = 

	// da 60 a 69
	inLettere[60] = 
	inLettere[61] = 
	inLettere[62] = 
	inLettere[63] = 
	inLettere[64] = 
	inLettere[65] = 
	inLettere[66] = 
	inLettere[67] = 
	inLettere[68] = 
	inLettere[69] = 

	// da 70 a 79
	inLettere[70] = 
	inLettere[71] = 
	inLettere[72] = 
	inLettere[73] = 
	inLettere[74] = 
	inLettere[75] = 
	inLettere[76] = 
	inLettere[77] = 
	inLettere[78] = 
	inLettere[79] = 

	// da 80 a 89
	inLettere[80] = 
	inLettere[81] = 
	inLettere[82] = 
	inLettere[83] = 
	inLettere[84] = 
	inLettere[85] = 
	inLettere[86] = 
	inLettere[87] = 
	inLettere[88] = 
	inLettere[89] = 

	// da 90 a 99
	inLettere[90] = 
	inLettere[91] = 
	inLettere[92] = 
	inLettere[93] = 
	inLettere[94] = 
	inLettere[95] = 
	inLettere[96] = 
	inLettere[97] = 
	inLettere[98] = 
	inLettere[99] = 



